<?xml version="1.0" encoding="UTF-8"?>
<glyph name="uni04E1" format="1">
  <advance width="1233"/>
  <unicode hex="04E1"/>
  <note>
	uni04E1
  </note>
  <outline>
    <contour>
      <point x="534" y="-440"/>
      <point x="690" y="-401"/>
      <point x="807" y="-323" type="curve" smooth="yes"/>
      <point x="972" y="-213"/>
      <point x="1034" y="-43"/>
      <point x="1034" y="99" type="curve" smooth="yes"/>
      <point x="1034" y="164"/>
      <point x="1021" y="217"/>
      <point x="1003" y="259" type="curve" smooth="yes"/>
      <point x="937" y="410"/>
      <point x="784" y="427"/>
      <point x="624" y="436" type="curve"/>
      <point x="1103" y="891" type="line"/>
      <point x="1148" y="1120" type="line"/>
      <point x="253" y="1120" type="line"/>
      <point x="210" y="901" type="line"/>
      <point x="776" y="901" type="line"/>
      <point x="299" y="452" type="line"/>
      <point x="256" y="234" type="line"/>
      <point x="424" y="234" type="line" smooth="yes"/>
      <point x="596" y="234"/>
      <point x="686" y="178"/>
      <point x="686" y="73" type="curve" smooth="yes"/>
      <point x="686" y="57"/>
      <point x="684" y="43"/>
      <point x="681" y="27" type="curve" smooth="yes"/>
      <point x="654" y="-107"/>
      <point x="539" y="-178"/>
      <point x="360" y="-178" type="curve" smooth="yes"/>
      <point x="229" y="-178"/>
      <point x="111" y="-140"/>
      <point x="-4" y="-69" type="curve"/>
      <point x="-61" y="-366" type="line"/>
      <point x="67" y="-415"/>
      <point x="194" y="-440"/>
      <point x="345" y="-440" type="curve" smooth="yes"/>
    </contour>
  </outline>
</glyph>
