<?xml version="1.0" encoding="UTF-8"?>
<glyph name="uni20AF" format="1">
  <advance width="1233"/>
  <unicode hex="20AF"/>
  <note>
	uni20AF
  </note>
  <outline>
    <contour>
      <point x="196" y="-29"/>
      <point x="243" y="1"/>
      <point x="276" y="56" type="curve" smooth="yes"/>
      <point x="282" y="66"/>
      <point x="288" y="78"/>
      <point x="294" y="91" type="curve"/>
      <point x="323" y="54" type="line" smooth="yes"/>
      <point x="332" y="43"/>
      <point x="345" y="29"/>
      <point x="363" y="12" type="curve"/>
      <point x="392" y="-14"/>
      <point x="425" y="-29"/>
      <point x="466" y="-29" type="curve" smooth="yes"/>
      <point x="530" y="-29"/>
      <point x="595" y="9"/>
      <point x="651" y="76" type="curve" smooth="yes"/>
      <point x="702" y="137"/>
      <point x="747" y="223"/>
      <point x="780" y="307" type="curve" smooth="yes"/>
      <point x="813" y="392"/>
      <point x="837" y="478"/>
      <point x="856" y="563" type="curve" smooth="yes"/>
      <point x="898" y="750"/>
      <point x="906" y="897"/>
      <point x="906" y="981" type="curve" smooth="yes"/>
      <point x="906" y="1033"/>
      <point x="903" y="1166"/>
      <point x="857" y="1288" type="curve" smooth="yes"/>
      <point x="802" y="1433"/>
      <point x="701" y="1520"/>
      <point x="553" y="1520" type="curve" smooth="yes"/>
      <point x="482" y="1520"/>
      <point x="419" y="1500"/>
      <point x="372" y="1456" type="curve" smooth="yes"/>
      <point x="320" y="1408"/>
      <point x="264" y="1306"/>
      <point x="237" y="1212" type="curve"/>
      <point x="345" y="1147" type="line"/>
      <point x="373" y="1230"/>
      <point x="392" y="1259"/>
      <point x="417" y="1283" type="curve"/>
      <point x="423" y="1288"/>
      <point x="429" y="1293"/>
      <point x="436" y="1297" type="curve"/>
      <point x="258" y="486" type="line" smooth="yes"/>
      <point x="252" y="460"/>
      <point x="246" y="437"/>
      <point x="240" y="418" type="curve"/>
      <point x="222" y="429"/>
      <point x="198" y="434"/>
      <point x="177" y="434" type="curve" smooth="yes"/>
      <point x="76" y="434"/>
      <point x="13" y="321"/>
      <point x="2" y="198" type="curve" smooth="yes"/>
      <point x="1" y="187"/>
      <point x="0" y="171"/>
      <point x="0" y="157" type="curve" smooth="yes"/>
      <point x="0" y="66"/>
      <point x="40" y="-29"/>
      <point x="140" y="-29" type="curve" smooth="yes"/>
    </contour>
    <contour>
      <point x="130" y="154"/>
      <point x="118" y="170"/>
      <point x="118" y="195" type="curve" smooth="yes"/>
      <point x="118" y="202"/>
      <point x="118" y="205"/>
      <point x="118" y="205" type="curve"/>
      <point x="121" y="225"/>
      <point x="132" y="248"/>
      <point x="151" y="248" type="curve" smooth="yes"/>
      <point x="164" y="248"/>
      <point x="175" y="238"/>
      <point x="184" y="218" type="curve"/>
      <point x="171" y="169"/>
      <point x="162" y="154"/>
      <point x="146" y="154" type="curve" smooth="yes"/>
    </contour>
    <contour>
      <point x="962" y="83" type="line"/>
      <point x="981" y="-1"/>
      <point x="1008" y="-29"/>
      <point x="1053" y="-29" type="curve" smooth="yes"/>
      <point x="1127" y="-29"/>
      <point x="1202" y="47"/>
      <point x="1252" y="190" type="curve" smooth="yes"/>
      <point x="1274" y="253"/>
      <point x="1293" y="334"/>
      <point x="1301" y="410" type="curve" smooth="yes"/>
      <point x="1305" y="448"/>
      <point x="1307" y="490"/>
      <point x="1307" y="521" type="curve" smooth="yes"/>
      <point x="1307" y="574"/>
      <point x="1301" y="618"/>
      <point x="1290" y="654" type="curve" smooth="yes"/>
      <point x="1267" y="729"/>
      <point x="1221" y="773"/>
      <point x="1163" y="773" type="curve" smooth="yes"/>
      <point x="1120" y="773"/>
      <point x="1086" y="749"/>
      <point x="1058" y="718" type="curve" smooth="yes"/>
      <point x="989" y="641"/>
      <point x="935" y="491"/>
      <point x="893" y="306" type="curve" smooth="yes"/>
      <point x="729" y="-414" type="line"/>
      <point x="840" y="-457" type="line"/>
    </contour>
    <contour>
      <point x="455" y="181"/>
      <point x="428" y="195"/>
      <point x="373" y="277" type="curve" smooth="yes"/>
      <point x="355" y="304" type="line"/>
      <point x="361" y="325"/>
      <point x="388" y="438"/>
      <point x="398" y="483" type="curve" smooth="yes"/>
      <point x="580" y="1308" type="line"/>
      <point x="648" y="1300"/>
      <point x="700" y="1236"/>
      <point x="728" y="1147" type="curve" smooth="yes"/>
      <point x="755" y="1062"/>
      <point x="756" y="966"/>
      <point x="756" y="942" type="curve" smooth="yes"/>
      <point x="756" y="901"/>
      <point x="753" y="848"/>
      <point x="749" y="808" type="curve" smooth="yes"/>
      <point x="736" y="679"/>
      <point x="698" y="520"/>
      <point x="660" y="412" type="curve" smooth="yes"/>
      <point x="612" y="276"/>
      <point x="552" y="181"/>
      <point x="482" y="181" type="curve" smooth="yes"/>
    </contour>
    <contour>
      <point x="1025" y="149"/>
      <point x="1020" y="212"/>
      <point x="1020" y="249" type="curve" smooth="yes"/>
      <point x="1020" y="265"/>
      <point x="1021" y="279"/>
      <point x="1022" y="296" type="curve"/>
      <point x="1028" y="357"/>
      <point x="1044" y="423"/>
      <point x="1063" y="473" type="curve" smooth="yes"/>
      <point x="1091" y="547"/>
      <point x="1124" y="579"/>
      <point x="1151" y="579" type="curve" smooth="yes"/>
      <point x="1188" y="579"/>
      <point x="1193" y="515"/>
      <point x="1193" y="480" type="curve" smooth="yes"/>
      <point x="1193" y="464"/>
      <point x="1192" y="440"/>
      <point x="1189" y="415" type="curve" smooth="yes"/>
      <point x="1180" y="334"/>
      <point x="1165" y="270"/>
      <point x="1138" y="218" type="curve" smooth="yes"/>
      <point x="1114" y="172"/>
      <point x="1087" y="149"/>
      <point x="1064" y="149" type="curve" smooth="yes"/>
    </contour>
  </outline>
</glyph>
