<?xml version="1.0" encoding="UTF-8"?>
<glyph name="uni2126" format="1">
  <advance width="1233"/>
  <unicode hex="2126"/>
  <note>
	uni2126
  </note>
  <outline>
    <contour>
      <point x="422" y="0" type="line"/>
      <point x="474" y="268" type="line"/>
      <point x="414" y="337"/>
      <point x="384" y="431"/>
      <point x="384" y="552" type="curve" smooth="yes"/>
      <point x="384" y="611"/>
      <point x="391" y="676"/>
      <point x="405" y="748" type="curve" smooth="yes"/>
      <point x="458" y="1024"/>
      <point x="568" y="1194"/>
      <point x="708" y="1194" type="curve" smooth="yes"/>
      <point x="774" y="1194"/>
      <point x="821" y="1156"/>
      <point x="844" y="1078" type="curve" smooth="yes"/>
      <point x="854" y="1044"/>
      <point x="859" y="1004"/>
      <point x="859" y="957" type="curve" smooth="yes"/>
      <point x="859" y="898"/>
      <point x="851" y="828"/>
      <point x="835" y="748" type="curve" smooth="yes"/>
      <point x="791" y="528"/>
      <point x="719" y="380"/>
      <point x="583" y="268" type="curve"/>
      <point x="531" y="0" type="line"/>
      <point x="1002" y="0" type="line"/>
      <point x="1043" y="211" type="line"/>
      <point x="805" y="211" type="line"/>
      <point x="991" y="354"/>
      <point x="1096" y="528"/>
      <point x="1144" y="782" type="curve" smooth="yes"/>
      <point x="1158" y="856"/>
      <point x="1165" y="926"/>
      <point x="1165" y="989" type="curve" smooth="yes"/>
      <point x="1165" y="1283"/>
      <point x="1016" y="1460"/>
      <point x="758" y="1460" type="curve" smooth="yes"/>
      <point x="440" y="1460"/>
      <point x="190" y="1192"/>
      <point x="111" y="782" type="curve" smooth="yes"/>
      <point x="97" y="709"/>
      <point x="90" y="642"/>
      <point x="90" y="582" type="curve" smooth="yes"/>
      <point x="90" y="431"/>
      <point x="134" y="314"/>
      <point x="228" y="211" type="curve"/>
      <point x="-10" y="211" type="line"/>
      <point x="-51" y="0" type="line"/>
    </contour>
  </outline>
</glyph>
