<?xml version="1.0" encoding="UTF-8"?>
<glyph name="uni06F0" format="1">
  <advance width="1233"/>
  <unicode hex="06F0"/>
  <note>
	uni06F0
  </note>
  <outline>
    <contour>
      <point x="726" y="450" type="line"/>
      <point x="726" y="700" type="line"/>
      <point x="506" y="700" type="line"/>
      <point x="506" y="450" type="line"/>
    </contour>
  </outline>
  <lib>
    <dict>
      <key>com.schriftgestaltung.Glyphs.Export</key>
      <false/>
    </dict>
  </lib>
</glyph>
