<?xml version="1.0" encoding="UTF-8"?>
<glyph name="uni1F88" format="1">
  <advance width="1233"/>
  <unicode hex="1F88"/>
  <note>
	uni1F88
  </note>
  <outline>
    <contour>
      <point x="328" y="0" type="line"/>
      <point x="418" y="369" type="line"/>
      <point x="813" y="369" type="line"/>
      <point x="905" y="0" type="line"/>
      <point x="1200" y="0" type="line"/>
      <point x="797" y="1493" type="line"/>
      <point x="436" y="1493" type="line"/>
      <point x="33" y="0" type="line"/>
    </contour>
    <contour>
      <point x="785" y="-426" type="line"/>
      <point x="785" y="-349" type="line"/>
      <point x="765" y="-349" type="line" smooth="yes"/>
      <point x="731" y="-349"/>
      <point x="714" y="-314"/>
      <point x="714" y="-245" type="curve" smooth="yes"/>
      <point x="714" y="-92" type="line"/>
      <point x="518" y="-92" type="line"/>
      <point x="518" y="-243" type="line" smooth="yes"/>
      <point x="518" y="-365"/>
      <point x="547" y="-426"/>
      <point x="606" y="-426" type="curve" smooth="yes"/>
    </contour>
    <contour>
      <point x="616" y="1223" type="line"/>
      <point x="756" y="612" type="line"/>
      <point x="477" y="612" type="line"/>
    </contour>
    <contour>
      <point x="230" y="1218"/>
      <point x="337" y="1304"/>
      <point x="337" y="1475" type="curve" smooth="yes"/>
      <point x="337" y="1650" type="line"/>
      <point x="16" y="1650" type="line"/>
      <point x="16" y="1475" type="line"/>
      <point x="198" y="1475" type="line"/>
      <point x="198" y="1370"/>
      <point x="137" y="1325"/>
      <point x="16" y="1338" type="curve"/>
      <point x="16" y="1218" type="line"/>
    </contour>
  </outline>
  <lib>
    <dict>
      <key>com.schriftgestaltung.Glyphs.Export</key>
      <false/>
    </dict>
  </lib>
</glyph>
